Chapter 4 Plotting with ggplot2 | CDABS R Workshop Series
…
4.6 Bivariate Plots

4.6.1 Line graphs

Another basic graph type is a line graph. Line graphs are useful for looking at evolution in a variable over time. We can build a line graph to see how measles case counts fluctuated over the 20th century. To do this, we will have to group our data so that there is one row per year. Luckily, since ggplot2 is part of the tidyverse, we can easily link together data transformation and graphing in one step.

yearly_rates_ext %>% 
  group_by(Year) %>% 
  summarize(TotalCount = sum(TotalCount))

## # A tibble: 107 × 2
##     Year TotalCount
##    <dbl>      <dbl>
##  1  1900          0
##  2  1901          0
##  3  1902          0
##  4  1903          0
##  5  1904          0
##  6  1905          0
##  7  1906       2345
##  8  1907      40199
##  9  1908      54471
## 10  1909      49802
## # … with 97 more rows
## # ℹ Use `print(n = ...)` to see more rows
…
