Chapter 3 Welcome to the Tidyverse | CDABS R Workshop Series
…
View(measles_us)

After reading the data, you will typically want to inspect it and make sure everything looks okay. There are several ways of doing this. In your script above, View() opens the data as a file in your documents pane.

The most basic way is to call the name of the object as we did in the last lesson with vectors. Since we used read_csv(), the object will print as a tibble. The problem with this, is that it will only show as many columns as can fit in your window. So it’s good to know a few other ways to look at your data.

measles_us

## # A tibble: 422,051 × 9
##    ConditionName CountryName  Admin1Name Admin1ISO PeriodStartDate PeriodEndDate
##    <chr>         <chr>        <chr>      <chr>     <date>          <date>       
##  1 Measles       UNITED STAT… WISCONSIN  US-WI     1927-11-20      1927-11-26   
##  2 Measles       UNITED STAT… WISCONSIN  US-WI     1927-11-27      1927-12-03   
##  3 Measles       UNITED STAT… WISCONSIN  US-WI     1927-12-04      1927-12-10   
##  4 Measles       UNITED STAT… WISCONSIN  US-WI     1927-12-18      1927-12-24   
##  5 Measles       UNITED STAT… WISCONSIN  US-WI     1927-12-25      1927-12-31   
##  6 Measles       UNITED STAT… WISCONSIN  US-WI     1928-01-01      1928-01-07   
##  7 Measles       UNITED STAT… WISCONSIN  US-WI     1928-01-08      1928-01-14   
##  8 Measles       UNITED STAT… WISCONSIN  US-WI     1928-01-15      1928-01-21   
##  9 Measles       UNITED STAT… WISCONSIN  US-WI     1928-01-22      1928-01-28   
## 10 Measles       UNITED STAT… WISCONSIN  US-WI     1928-01-29      1928-02-04   
## # … with 422,041 more rows, and 3 more variables:
## #   PartOfCumulativeCountSeries <dbl>, SourceName <chr>, CountValue <dbl>
…
3.4 Working with columns

3.4.1 Select()

To select columns of a data frame, use select(). This is a great way to create a smaller data frame with only the variables you are interested in.

select() is a function. Remember that functions have arguments which go inside the parentheses. The first argument to this function is the name of the data object, which in this case is measles_us, and the subsequent arguments are the names of the columns we want to keep, separated by commas.

Let’s try selecting the Admin1Name column and the CountValue column.

select(measles_us, Admin1Name, CountValue)

## # A tibble: 422,051 × 2
##    Admin1Name CountValue
##    <chr>           <dbl>
##  1 WISCONSIN          85
##  2 WISCONSIN         120
##  3 WISCONSIN          84
##  4 WISCONSIN         106
##  5 WISCONSIN          39
##  6 WISCONSIN          45
##  7 WISCONSIN          28
##  8 WISCONSIN         140
##  9 WISCONSIN          48
## 10 WISCONSIN          85
## # … with 422,041 more rows

As you can imagine, if you had a number of columns to select, it could get tiresome to write them all out. One way around this is to use a colon : to name a range of adjacent columns.

select(measles_us, ConditionName:Admin1ISO)

## # A tibble: 422,051 × 4
##    ConditionName CountryName              Admin1Name Admin1ISO
##    <chr>         <chr>                    <chr>      <chr>    
##  1 Measles       UNITED STATES OF AMERICA WISCONSIN  US-WI    
##  2 Measles       UNITED STATES OF AMERICA WISCONSIN  US-WI    
##  3 Measles       UNITED STATES OF AMERICA WISCONSIN  US-WI    
##  4 Measles       UNITED STATES OF AMERICA WISCONSIN  US-WI    
##  5 Measles       UNITED STATES OF AMERICA WISCONSIN  US-WI    
##  6 Measles       UNITED STATES OF AMERICA WISCONSIN  US-WI    
##  7 Measles       UNITED STATES OF AMERICA WISCONSIN  US-WI    
##  8 Measles       UNITED STATES OF AMERICA WISCONSIN  US-WI    
##  9 Measles       UNITED STATES OF AMERICA WISCONSIN  US-WI    
## 10 Measles       UNITED STATES OF AMERICA WISCONSIN  US-WI    
## # … with 422,041 more rows

Another helpful tool that the tidyverse provides is the pipe operator which looks like %>%. The pipe is made available via the magrittr package, installed automatically with dplyr. If you use RStudio, you can type the pipe with Ctrl + Shift + M if you have a PC or Cmd + Shift + M if you have a Mac.

With the pipe you start with your data object and pipe it to the function, rather than naming the data as your first argument. So, the pipe becomes especially valuable when you have a number of steps that you want to connect. Another benefit of using the pipe in RStudio is that the interface will supply column names to you in the auto complete. This helps so you do not need to remember sometimes lengthy column names, and you are less likely to get an error from a typo.

measles_us %>% 
  select(Admin1Name, PartOfCumulativeCountSeries)

## # A tibble: 422,051 × 2
##    Admin1Name PartOfCumulativeCountSeries
##    <chr>                            <dbl>
##  1 WISCONSIN                            0
##  2 WISCONSIN                            0
##  3 WISCONSIN                            0
##  4 WISCONSIN                            0
##  5 WISCONSIN                            0
##  6 WISCONSIN                            0
##  7 WISCONSIN                            0
##  8 WISCONSIN                            0
##  9 WISCONSIN                            0
## 10 WISCONSIN                            0
## # … with 422,041 more rows
…
measles_us_mod <-
  rename(measles_us_mod, State = Admin1Name)

3.4.3 Creating new columns with mutate()

Frequently you’ll want to create new columns based on the values in existing columns, for example to do unit conversions, or to find the ratio of values in two columns. For this you can use the mutate() function. The transmute() function is similar, but replaces old columns with the new one.

We know that each row in our dataset represents some time span, but we’re not sure what that span is. Below we use mutate() to create a new column called Span, which gives the number of days between the PeriodEndDate column and the PeriodStartDate column. This is why it is important to make sure your date columns are parsed properly as dates when importing your data. If the dates had been left as character data, it would not have been possible to do arithmetic with them.

measles_us_mod <- 
  mutate(measles_us_mod, Span = PeriodEndDate - PeriodStartDate)

measles_us_mod

## # A tibble: 422,051 × 6
##    State     PeriodStartDate PeriodEndDate PartOfCumulativeCou… CountValue Span 
##    <chr>     <date>          <date>                       <dbl>      <dbl> <drt>
##  1 WISCONSIN 1927-11-20      1927-11-26                       0         85 6 da…
##  2 WISCONSIN 1927-11-27      1927-12-03                       0        120 6 da…
##  3 WISCONSIN 1927-12-04      1927-12-10                       0         84 6 da…
##  4 WISCONSIN 1927-12-18      1927-12-24                       0        106 6 da…
##  5 WISCONSIN 1927-12-25      1927-12-31                       0         39 6 da…
##  6 WISCONSIN 1928-01-01      1928-01-07                       0         45 6 da…
##  7 WISCONSIN 1928-01-08      1928-01-14                       0         28 6 da…
##  8 WISCONSIN 1928-01-15      1928-01-21                       0        140 6 da…
##  9 WISCONSIN 1928-01-22      1928-01-28                       0         48 6 da…
## 10 WISCONSIN 1928-01-29      1928-02-04                       0         85 6 da…
## # … with 422,041 more rows

It’s hard to get a sense of what different time spans are present in our data. We can use the count() function to help us figure that out.

count(measles_us_mod,Span)

## # A tibble: 59 × 2
##    Span         n
##    <drtn>   <int>
##  1  6 days 338063
##  2 13 days    558
##  3 20 days    693
##  4 27 days    782
##  5 34 days    857
##  6 41 days    929
##  7 48 days    913
##  8 55 days    997
##  9 62 days   1083
## 10 69 days   1136
## # … with 49 more rows
…
x|y
x or y

x&y
x and y

!x
not x

We’ll come back to our problem of different time spans in a moment. First, let’s try filtering our data by just one condition. We want to see just the rows that contain counts from Maryland.

measles_us_mod %>% filter(State == "MARYLAND")

## # A tibble: 7,246 × 6
##    State    PeriodStartDate PeriodEndDate PartOfCumulativeCoun… CountValue Span 
##    <chr>    <date>          <date>                        <dbl>      <dbl> <drt>
##  1 MARYLAND 1927-11-27      1927-12-03                        0         64 6 da…
##  2 MARYLAND 1927-12-04      1927-12-10                        0         88 6 da…
##  3 MARYLAND 1927-12-18      1927-12-24                        0        105 6 da…
##  4 MARYLAND 1927-12-25      1927-12-31                        0        109 6 da…
##  5 MARYLAND 1928-01-01      1928-01-07                        0        175 6 da…
##  6 MARYLAND 1928-01-08      1928-01-14                        0        249 6 da…
##  7 MARYLAND 1928-01-15      1928-01-21                        0        345 6 da…
##  8 MARYLAND 1928-01-22      1928-01-28                        0        365 6 da…
##  9 MARYLAND 1928-01-29      1928-02-04                        0        504 6 da…
## 10 MARYLAND 1928-02-05      1928-02-11                        0        563 6 da…
## # … with 7,236 more rows

When matching strings you must be exact. R is case-sensitive. So State == "Maryland" or State == "maryland" would return 0 rows.

You can add additional conditions to filter by, separated by commas or other logical operators like &, >, and >.

Below we want just the rows for Maryland, and only include periods where the count was more than 500 reported cases. Note that while you need quotation marks around character data, you do not need them around numeric data.

measles_us_mod %>% 
  filter(State == "MARYLAND" & CountValue > 500)

## # A tibble: 328 × 6
##    State    PeriodStartDate PeriodEndDate PartOfCumulativeCoun… CountValue Span 
##    <chr>    <date>          <date>                        <dbl>      <dbl> <drt>
##  1 MARYLAND 1928-01-29      1928-02-04                        0        504 6 da…
##  2 MARYLAND 1928-02-05      1928-02-11                        0        563 6 da…
##  3 MARYLAND 1928-02-12      1928-02-18                        0        696 6 da…
##  4 MARYLAND 1928-02-19      1928-02-25                        0        750 6 da…
##  5 MARYLAND 1928-02-26      1928-03-03                        0       1012 6 da…
##  6 MARYLAND 1928-03-04      1928-03-10                        0        951 6 da…
##  7 MARYLAND 1928-03-11      1928-03-17                        0       1189 6 da…
##  8 MARYLAND 1928-03-18      1928-03-24                        0       1163 6 da…
##  9 MARYLAND 1928-03-25      1928-03-31                        0       1020 6 da…
## 10 MARYLAND 1928-04-01      1928-04-07                        0        753 6 da…
## # … with 318 more rows
…
How can we calculate the total number of measles cases in each state for each reported time period?

First we need to group our data by state, and then group by period. Remember that in our original data set each state contained counts for multiple municipalities. That means in our current data frame there will be multiple rows for each period that needs to be condensed.

#group - prepares for summary calculations
count_by_period <-
  non_cumulative %>%
  group_by(State, PeriodStartDate)

count_by_period

## # A tibble: 337,637 × 6
## # Groups:   State, PeriodStartDate [150,481]
##    State     PeriodStartDate PeriodEndDate PartOfCumulativeCou… CountValue Span 
##    <chr>     <date>          <date>                       <dbl>      <dbl> <drt>
##  1 WISCONSIN 1927-11-20      1927-11-26                       0         85 6 da…
##  2 WISCONSIN 1927-11-27      1927-12-03                       0        120 6 da…
##  3 WISCONSIN 1927-12-04      1927-12-10                       0         84 6 da…
##  4 WISCONSIN 1927-12-18      1927-12-24                       0        106 6 da…
##  5 WISCONSIN 1927-12-25      1927-12-31                       0         39 6 da…
##  6 WISCONSIN 1928-01-01      1928-01-07                       0         45 6 da…
##  7 WISCONSIN 1928-01-08      1928-01-14                       0         28 6 da…
##  8 WISCONSIN 1928-01-15      1928-01-21                       0        140 6 da…
##  9 WISCONSIN 1928-01-22      1928-01-28                       0         48 6 da…
## 10 WISCONSIN 1928-01-29      1928-02-04                       0         85 6 da…
## # … with 337,627 more rows
…
## The following objects are masked from 'package:base':
## 
##     date, intersect, setdiff, union

Remember, you only need to install a package once, but you have to load it with each new session.

#Get year in separate column from PeriodStartDate
count_by_period <- 
  count_by_period %>% 
  mutate(Year = year(PeriodStartDate))

count_by_period

## # A tibble: 150,481 × 4
## # Groups:   State [56]
##    State   PeriodStartDate TotalCount  Year
##    <chr>   <date>               <dbl> <dbl>
##  1 ALABAMA 1909-05-23               1  1909
##  2 ALABAMA 1910-01-16               1  1910
##  3 ALABAMA 1910-02-06              13  1910
##  4 ALABAMA 1910-04-10             127  1910
##  5 ALABAMA 1910-04-17              81  1910
##  6 ALABAMA 1910-04-24              73  1910
##  7 ALABAMA 1910-05-01              62  1910
##  8 ALABAMA 1910-05-09              72  1910
##  9 ALABAMA 1910-05-15              39  1910
## 10 ALABAMA 1910-05-22              38  1910
## # … with 150,471 more rows

Now we can do our grouping and summarizing again as we did above.

#Get totals for each state each year.
yearly_count_state <-
  count_by_period %>% 
  group_by(Year, State) %>% 
  summarise(TotalCount = sum(TotalCount))

## `summarise()` has grouped output by 'Year'. You can override using the
## `.groups` argument.

yearly_count_state

## # A tibble: 4,210 × 3
## # Groups:   Year [96]
##     Year State         TotalCount
##    <dbl> <chr>              <dbl>
##  1  1906 CALIFORNIA           224
##  2  1906 CONNECTICUT           23
##  3  1906 FLORIDA                4
##  4  1906 ILLINOIS             187
##  5  1906 INDIANA               20
##  6  1906 KENTUCKY               2
##  7  1906 MAINE                 26
##  8  1906 MASSACHUSETTS        282
##  9  1906 MICHIGAN             320
## 10  1906 MISSOURI             274
## # … with 4,200 more rows

Alternatively, to see a national level summary, we could group just by Year

#Get totals each year.
yearly_count <-
  count_by_period %>% 
  group_by(Year) %>%
  summarise(TotalCount = sum(TotalCount))

yearly_count

## # A tibble: 96 × 2
##     Year TotalCount
##    <dbl>      <dbl>
##  1  1906       2345
##  2  1907      40699
##  3  1908      55632
##  4  1909      56317
##  5  1910      87191
##  6  1911      62306
##  7  1912      66388
##  8  1913     117571
##  9  1914      57363
## 10  1915      95507
## # … with 86 more rows
…
View(hist_pop_long)

Now our two datasets have similar structures, a column of state names, a column of years, and a column of values. Let’s join these two datasets by the state and year columns. Note that if both sets have the same column names, you do not need to specify anything in the by argument. We use a left join here which preserves all the rows in our measles dataset and adds the matching rows from the population dataset.

joined_df <-
  left_join(yearly_count_state, hist_pop_long, by=c("State" = "State", "Year" = "DATE" ))

joined_df

## # A tibble: 4,210 × 4
## # Groups:   Year [96]
##     Year State         TotalCount pop1000
##    <dbl> <chr>              <dbl>   <dbl>
##  1  1906 CALIFORNIA           224    1976
##  2  1906 CONNECTICUT           23    1033
##  3  1906 FLORIDA                4     628
##  4  1906 ILLINOIS             187    5309
##  5  1906 INDIANA               20    2663
##  6  1906 KENTUCKY               2    2234
##  7  1906 MAINE                 26     729
##  8  1906 MASSACHUSETTS        282    3107
##  9  1906 MICHIGAN             320    2626
## 10  1906 MISSOURI             274    3223
## # … with 4,200 more rows

Now we can use our old friend mutate() to add a rate column calculated from the count and pop1000 columns.

#Add column for rate (per 1000) of measles
rate_by_year <- mutate(joined_df, rate = TotalCount / pop1000)
rate_by_year

## # A tibble: 4,210 × 5
## # Groups:   Year [96]
##     Year State         TotalCount pop1000     rate
##    <dbl> <chr>              <dbl>   <dbl>    <dbl>
##  1  1906 CALIFORNIA           224    1976 0.113   
##  2  1906 CONNECTICUT           23    1033 0.0223  
##  3  1906 FLORIDA                4     628 0.00637 
##  4  1906 ILLINOIS             187    5309 0.0352  
##  5  1906 INDIANA               20    2663 0.00751 
##  6  1906 KENTUCKY               2    2234 0.000895
##  7  1906 MAINE                 26     729 0.0357  
##  8  1906 MASSACHUSETTS        282    3107 0.0908  
##  9  1906 MICHIGAN             320    2626 0.122   
## 10  1906 MISSOURI             274    3223 0.0850  
## # … with 4,200 more rows
